<svg width="400" height="60" viewBox="0 0 400 60" xmlns="http://www.w3.org/2000/svg" xmlns:xlink="http://www.w3.org/1999/xlink">
  <title>ftc Logo</title>
  <text x="0" y="58" style="font-size:75px;font-weight:bold;">
    <tspan fill="#e2001a">f</tspan>
    <tspan x="28" fill="#006ab2">t</tspan>  
    <tspan x="55" fill="#999">c</tspan>
  </text>
  <text x="110" y="55" style="font-size:24px;font-weight:bold;">
    <tspan fill="#e2001a">fischer</tspan>
    <tspan x="185" fill="#006ab2">technik</tspan>  
    <tspan fill="#999">community</tspan>
  </text>  
</svg>
